{
    "page": 1,
    "per_page": 15,
    "photos": [
        {
            "id": 3731256,
            "width": 4640,
            "height": 6960,
            "url": "https://www.pexels.com/photo/person-holding-black-backpack-3731256/",
            "photographer": "Luis Quintero",
            "photographer_url": "https://www.pexels.com/@jibarofoto",
            "photographer_id": 447123,
            "avg_color": "#C8CACC",
            "src": {
                "original": "https://images.pexels.com/photos/3731256/pexels-photo-3731256.jpeg",
                "large2x": "https://images.pexels.com/photos/3731256/pexels-photo-3731256.jpeg?auto=compress\u0026cs=tinysrgb\u0026dpr=2\u0026h=650\u0026w=940",
                "large": "https://images.pexels.com/photos/3731256/pexels-photo-3731256.jpeg?auto=compress\u0026cs=tinysrgb\u0026h=650\u0026w=940",
                "medium": "https://images.pexels.com/photos/3731256/pexels-photo-3731256.jpeg?auto=compress\u0026cs=tinysrgb\u0026h=350",
                "small": "https://images.pexels.com/photos/3731256/pexels-photo-3731256.jpeg?auto=compress\u0026cs=tinysrgb\u0026h=130",
                "portrait": "https://images.pexels.com/photos/3731256/pexels-photo-3731256.jpeg?auto=compress\u0026cs=tinysrgb\u0026fit=crop\u0026h=1200\u0026w=800",
                "landscape": "https://images.pexels.com/photos/3731256/pexels-photo-3731256.jpeg?auto=compress\u0026cs=tinysrgb\u0026fit=crop\u0026h=627\u0026w=1200",
                "tiny": "https://images.pexels.com/photos/3731256/pexels-photo-3731256.jpeg?auto=compress\u0026cs=tinysrgb\u0026dpr=1\u0026fit=crop\u0026h=200\u0026w=280"
            },
            "liked": false,
            "alt": "Person Holding Black Backpack"
        },
        {
            "id": 842947,
            "width": 2880,
            "height": 1920,
            "url": "https://www.pexels.com/photo/man-wearing-black-bubble-jacket-and-black-leather-backpack-near-bay-842947/",
            "photographer": "Vinta Supply Co. | NYC",
            "photographer_url": "https://www.pexels.com/@vinta-supply-co-nyc-268013",
            "photographer_id": 268013,
            "avg_color": "#A19B99",
            "src": {
                "original": "https://images.pexels.com/photos/842947/pexels-photo-842947.jpeg",
                "large2x": "https://images.pexels.com/photos/842947/pexels-photo-842947.jpeg?auto=compress\u0026cs=tinysrgb\u0026dpr=2\u0026h=650\u0026w=940",
                "large": "https://images.pexels.com/photos/842947/pexels-photo-842947.jpeg?auto=compress\u0026cs=tinysrgb\u0026h=650\u0026w=940",
                "medium": "https://images.pexels.com/photos/842947/pexels-photo-842947.jpeg?auto=compress\u0026cs=tinysrgb\u0026h=350",
                "small": "https://images.pexels.com/photos/842947/pexels-photo-842947.jpeg?auto=compress\u0026cs=tinysrgb\u0026h=130",
                "portrait": "https://images.pexels.com/photos/842947/pexels-photo-842947.jpeg?auto=compress\u0026cs=tinysrgb\u0026fit=crop\u0026h=1200\u0026w=800",
                "landscape": "https://images.pexels.com/photos/842947/pexels-photo-842947.jpeg?auto=compress\u0026cs=tinysrgb\u0026fit=crop\u0026h=627\u0026w=1200",
                "tiny": "https://images.pexels.com/photos/842947/pexels-photo-842947.jpeg?auto=compress\u0026cs=tinysrgb\u0026dpr=1\u0026fit=crop\u0026h=200\u0026w=280"
            },
            "liked": false,
            "alt": "Man Wearing Black Bubble Jacket and Black Leather Backpack Near Bay"
        },
        {
            "id": 1294731,
            "width": 2592,
            "height": 1728,
            "url": "https://www.pexels.com/photo/selective-focus-photo-of-red-hiking-backpack-on-green-grass-1294731/",
            "photographer": "Ravindra rawat",
            "photographer_url": "https://www.pexels.com/@ravirawat",
            "photographer_id": 510165,
            "avg_color": "#ACA9A8",
            "src": {
                "original": "https://images.pexels.com/photos/1294731/pexels-photo-1294731.jpeg",
                "large2x": "https://images.pexels.com/photos/1294731/pexels-photo-1294731.jpeg?auto=compress\u0026cs=tinysrgb\u0026dpr=2\u0026h=650\u0026w=940",
                "large": "https://images.pexels.com/photos/1294731/pexels-photo-1294731.jpeg?auto=compress\u0026cs=tinysrgb\u0026h=650\u0026w=940",
                "medium": "https://images.pexels.com/photos/1294731/pexels-photo-1294731.jpeg?auto=compress\u0026cs=tinysrgb\u0026h=350",
                "small": "https://images.pexels.com/photos/1294731/pexels-photo-1294731.jpeg?auto=compress\u0026cs=tinysrgb\u0026h=130",
                "portrait": "https://images.pexels.com/photos/1294731/pexels-photo-1294731.jpeg?auto=compress\u0026cs=tinysrgb\u0026fit=crop\u0026h=1200\u0026w=800",
                "landscape": "https://images.pexels.com/photos/1294731/pexels-photo-1294731.jpeg?auto=compress\u0026cs=tinysrgb\u0026fit=crop\u0026h=627\u0026w=1200",
                "tiny": "https://images.pexels.com/photos/1294731/pexels-photo-1294731.jpeg?auto=compress\u0026cs=tinysrgb\u0026dpr=1\u0026fit=crop\u0026h=200\u0026w=280"
            },
            "liked": false,
            "alt": "Selective Focus Photo of Red Hiking Backpack on Green Grass"
        },
        {
            "id": 214574,
            "width": 5760,
            "height": 3840,
            "url": "https://www.pexels.com/photo/woman-jumping-wearing-green-backpack-214574/",
            "photographer": "Sebastian Voortman",
            "photographer_url": "https://www.pexels.com/@sebastian",
            "photographer_id": 44106,
            "avg_color": "#8A8E87",
            "src": {
                "original": "https://images.pexels.com/photos/214574/pexels-photo-214574.jpeg",
                "large2x": "https://images.pexels.com/photos/214574/pexels-photo-214574.jpeg?auto=compress\u0026cs=tinysrgb\u0026dpr=2\u0026h=650\u0026w=940",
                "large": "https://images.pexels.com/photos/214574/pexels-photo-214574.jpeg?auto=compress\u0026cs=tinysrgb\u0026h=650\u0026w=940",
                "medium": "https://images.pexels.com/photos/214574/pexels-photo-214574.jpeg?auto=compress\u0026cs=tinysrgb\u0026h=350",
                "small": "https://images.pexels.com/photos/214574/pexels-photo-214574.jpeg?auto=compress\u0026cs=tinysrgb\u0026h=130",
                "portrait": "https://images.pexels.com/photos/214574/pexels-photo-214574.jpeg?auto=compress\u0026cs=tinysrgb\u0026fit=crop\u0026h=1200\u0026w=800",
                "landscape": "https://images.pexels.com/photos/214574/pexels-photo-214574.jpeg?auto=compress\u0026cs=tinysrgb\u0026fit=crop\u0026h=627\u0026w=1200",
                "tiny": "https://images.pexels.com/photos/214574/pexels-photo-214574.jpeg?auto=compress\u0026cs=tinysrgb\u0026dpr=1\u0026fit=crop\u0026h=200\u0026w=280"
            },
            "liked": false,
            "alt": "Woman Jumping Wearing Green Backpack"
        },
        {
            "id": 2905238,
            "width": 1707,
            "height": 2560,
            "url": "https://www.pexels.com/photo/blue-and-brown-backpack-on-the-ground-2905238/",
            "photographer": "Matheus Bertelli",
            "photographer_url": "https://www.pexels.com/@bertellifotografia",
            "photographer_id": 177895,
            "avg_color": "#4B4843",
            "src": {
                "original": "https://images.pexels.com/photos/2905238/pexels-photo-2905238.jpeg",
                "large2x": "https://images.pexels.com/photos/2905238/pexels-photo-2905238.jpeg?auto=compress\u0026cs=tinysrgb\u0026dpr=2\u0026h=650\u0026w=940",
                "large": "https://images.pexels.com/photos/2905238/pexels-photo-2905238.jpeg?auto=compress\u0026cs=tinysrgb\u0026h=650\u0026w=940",
                "medium": "https://images.pexels.com/photos/2905238/pexels-photo-2905238.jpeg?auto=compress\u0026cs=tinysrgb\u0026h=350",
                "small": "https://images.pexels.com/photos/2905238/pexels-photo-2905238.jpeg?auto=compress\u0026cs=tinysrgb\u0026h=130",
                "portrait": "https://images.pexels.com/photos/2905238/pexels-photo-2905238.jpeg?auto=compress\u0026cs=tinysrgb\u0026fit=crop\u0026h=1200\u0026w=800",
                "landscape": "https://images.pexels.com/photos/2905238/pexels-photo-2905238.jpeg?auto=compress\u0026cs=tinysrgb\u0026fit=crop\u0026h=627\u0026w=1200",
                "tiny": "https://images.pexels.com/photos/2905238/pexels-photo-2905238.jpeg?auto=compress\u0026cs=tinysrgb\u0026dpr=1\u0026fit=crop\u0026h=200\u0026w=280"
            },
            "liked": false,
            "alt": "Blue and Brown Backpack  on the Ground"
        },
        {
            "id": 732632,
            "width": 3456,
            "height": 5184,
            "url": "https://www.pexels.com/photo/man-wearing-black-hoodie-carries-black-and-gray-backpacker-near-trees-during-foggy-weather-732632/",
            "photographer": "Lalu Fatoni",
            "photographer_url": "https://www.pexels.com/@lalu-fatoni-228553",
            "photographer_id": 228553,
            "avg_color": "#71929E",
            "src": {
                "original": "https://images.pexels.com/photos/732632/pexels-photo-732632.jpeg",
                "large2x": "https://images.pexels.com/photos/732632/pexels-photo-732632.jpeg?auto=compress\u0026cs=tinysrgb\u0026dpr=2\u0026h=650\u0026w=940",
                "large": "https://images.pexels.com/photos/732632/pexels-photo-732632.jpeg?auto=compress\u0026cs=tinysrgb\u0026h=650\u0026w=940",
                "medium": "https://images.pexels.com/photos/732632/pexels-photo-732632.jpeg?auto=compress\u0026cs=tinysrgb\u0026h=350",
                "small": "https://images.pexels.com/photos/732632/pexels-photo-732632.jpeg?auto=compress\u0026cs=tinysrgb\u0026h=130",
                "portrait": "https://images.pexels.com/photos/732632/pexels-photo-732632.jpeg?auto=compress\u0026cs=tinysrgb\u0026fit=crop\u0026h=1200\u0026w=800",
                "landscape": "https://images.pexels.com/photos/732632/pexels-photo-732632.jpeg?auto=compress\u0026cs=tinysrgb\u0026fit=crop\u0026h=627\u0026w=1200",
                "tiny": "https://images.pexels.com/photos/732632/pexels-photo-732632.jpeg?auto=compress\u0026cs=tinysrgb\u0026dpr=1\u0026fit=crop\u0026h=200\u0026w=280"
            },
            "liked": false,
            "alt": "Man Wearing Black Hoodie Carries Black and Gray Backpacker Near Trees during Foggy Weather"
        },
        {
            "id": 443417,
            "width": 4505,
            "height": 3003,
            "url": "https://www.pexels.com/photo/woman-wearing-backpack-standing-in-front-building-443417/",
            "photographer": "Tim Gouw",
            "photographer_url": "https://www.pexels.com/@punttim",
            "photographer_id": 8202,
            "avg_color": "#97908F",
            "src": {
                "original": "https://images.pexels.com/photos/443417/pexels-photo-443417.jpeg",
                "large2x": "https://images.pexels.com/photos/443417/pexels-photo-443417.jpeg?auto=compress\u0026cs=tinysrgb\u0026dpr=2\u0026h=650\u0026w=940",
                "large": "https://images.pexels.com/photos/443417/pexels-photo-443417.jpeg?auto=compress\u0026cs=tinysrgb\u0026h=650\u0026w=940",
                "medium": "https://images.pexels.com/photos/443417/pexels-photo-443417.jpeg?auto=compress\u0026cs=tinysrgb\u0026h=350",
                "small": "https://images.pexels.com/photos/443417/pexels-photo-443417.jpeg?auto=compress\u0026cs=tinysrgb\u0026h=130",
                "portrait": "https://images.pexels.com/photos/443417/pexels-photo-443417.jpeg?auto=compress\u0026cs=tinysrgb\u0026fit=crop\u0026h=1200\u0026w=800",
                "landscape": "https://images.pexels.com/photos/443417/pexels-photo-443417.jpeg?auto=compress\u0026cs=tinysrgb\u0026fit=crop\u0026h=627\u0026w=1200",
                "tiny": "https://images.pexels.com/photos/443417/pexels-photo-443417.jpeg?auto=compress\u0026cs=tinysrgb\u0026dpr=1\u0026fit=crop\u0026h=200\u0026w=280"
            },
            "liked": false,
            "alt": "Woman Wearing Backpack Standing in Front Building"
        },
        {
            "id": 704805,
            "width": 4000,
            "height": 6000,
            "url": "https://www.pexels.com/photo/man-wearing-black-backpack-704805/",
            "photographer": "Kristina Paukshtite",
            "photographer_url": "https://www.pexels.com/@kpaukshtite",
            "photographer_id": 28319,
            "avg_color": "#6A6C67",
            "src": {
                "original": "https://images.pexels.com/photos/704805/pexels-photo-704805.jpeg",
                "large2x": "https://images.pexels.com/photos/704805/pexels-photo-704805.jpeg?auto=compress\u0026cs=tinysrgb\u0026dpr=2\u0026h=650\u0026w=940",
                "large": "https://images.pexels.com/photos/704805/pexels-photo-704805.jpeg?auto=compress\u0026cs=tinysrgb\u0026h=650\u0026w=940",
                "medium": "https://images.pexels.com/photos/704805/pexels-photo-704805.jpeg?auto=compress\u0026cs=tinysrgb\u0026h=350",
                "small": "https://images.pexels.com/photos/704805/pexels-photo-704805.jpeg?auto=compress\u0026cs=tinysrgb\u0026h=130",
                "portrait": "https://images.pexels.com/photos/704805/pexels-photo-704805.jpeg?auto=compress\u0026cs=tinysrgb\u0026fit=crop\u0026h=1200\u0026w=800",
                "landscape": "https://images.pexels.com/photos/704805/pexels-photo-704805.jpeg?auto=compress\u0026cs=tinysrgb\u0026fit=crop\u0026h=627\u0026w=1200",
                "tiny": "https://images.pexels.com/photos/704805/pexels-photo-704805.jpeg?auto=compress\u0026cs=tinysrgb\u0026dpr=1\u0026fit=crop\u0026h=200\u0026w=280"
            },
            "liked": false,
            "alt": "Man Wearing Black Backpack"
        },
        {
            "id": 1478476,
            "width": 3456,
            "height": 5184,
            "url": "https://www.pexels.com/photo/photo-of-woman-sitting-on-chair-1478476/",
            "photographer": "Ray Piedra",
            "photographer_url": "https://www.pexels.com/@craytive",
            "photographer_id": 650365,
            "avg_color": "#6D6673",
            "src": {
                "original": "https://images.pexels.com/photos/1478476/pexels-photo-1478476.jpeg",
                "large2x": "https://images.pexels.com/photos/1478476/pexels-photo-1478476.jpeg?auto=compress\u0026cs=tinysrgb\u0026dpr=2\u0026h=650\u0026w=940",
                "large": "https://images.pexels.com/photos/1478476/pexels-photo-1478476.jpeg?auto=compress\u0026cs=tinysrgb\u0026h=650\u0026w=940",
                "medium": "https://images.pexels.com/photos/1478476/pexels-photo-1478476.jpeg?auto=compress\u0026cs=tinysrgb\u0026h=350",
                "small": "https://images.pexels.com/photos/1478476/pexels-photo-1478476.jpeg?auto=compress\u0026cs=tinysrgb\u0026h=130",
                "portrait": "https://images.pexels.com/photos/1478476/pexels-photo-1478476.jpeg?auto=compress\u0026cs=tinysrgb\u0026fit=crop\u0026h=1200\u0026w=800",
                "landscape": "https://images.pexels.com/photos/1478476/pexels-photo-1478476.jpeg?auto=compress\u0026cs=tinysrgb\u0026fit=crop\u0026h=627\u0026w=1200",
                "tiny": "https://images.pexels.com/photos/1478476/pexels-photo-1478476.jpeg?auto=compress\u0026cs=tinysrgb\u0026dpr=1\u0026fit=crop\u0026h=200\u0026w=280"
            },
            "liked": false,
            "alt": "Photo of Woman Sitting On Chair"
        },
        {
            "id": 868097,
            "width": 5472,
            "height": 3648,
            "url": "https://www.pexels.com/photo/men-s-blue-leather-jacket-and-brown-backpack-868097/",
            "photographer": "Oziel Gómez",
            "photographer_url": "https://www.pexels.com/@ozgomz",
            "photographer_id": 270062,
            "avg_color": "#7E8382",
            "src": {
                "original": "https://images.pexels.com/photos/868097/pexels-photo-868097.jpeg",
                "large2x": "https://images.pexels.com/photos/868097/pexels-photo-868097.jpeg?auto=compress\u0026cs=tinysrgb\u0026dpr=2\u0026h=650\u0026w=940",
                "large": "https://images.pexels.com/photos/868097/pexels-photo-868097.jpeg?auto=compress\u0026cs=tinysrgb\u0026h=650\u0026w=940",
                "medium": "https://images.pexels.com/photos/868097/pexels-photo-868097.jpeg?auto=compress\u0026cs=tinysrgb\u0026h=350",
                "small": "https://images.pexels.com/photos/868097/pexels-photo-868097.jpeg?auto=compress\u0026cs=tinysrgb\u0026h=130",
                "portrait": "https://images.pexels.com/photos/868097/pexels-photo-868097.jpeg?auto=compress\u0026cs=tinysrgb\u0026fit=crop\u0026h=1200\u0026w=800",
                "landscape": "https://images.pexels.com/photos/868097/pexels-photo-868097.jpeg?auto=compress\u0026cs=tinysrgb\u0026fit=crop\u0026h=627\u0026w=1200",
                "tiny": "https://images.pexels.com/photos/868097/pexels-photo-868097.jpeg?auto=compress\u0026cs=tinysrgb\u0026dpr=1\u0026fit=crop\u0026h=200\u0026w=280"
            },
            "liked": false,
            "alt": "Men's Blue Leather Jacket and Brown Backpack"
        },
        {
            "id": 1170184,
            "width": 6000,
            "height": 4000,
            "url": "https://www.pexels.com/photo/woman-and-man-waiting-on-train-station-1170184/",
            "photographer": "veerasak Piyawatanakul",
            "photographer_url": "https://www.pexels.com/@veerasak-piyawatanakul-392493",
            "photographer_id": 392493,
            "avg_color": "#8A756B",
            "src": {
                "original": "https://images.pexels.com/photos/1170184/pexels-photo-1170184.jpeg",
                "large2x": "https://images.pexels.com/photos/1170184/pexels-photo-1170184.jpeg?auto=compress\u0026cs=tinysrgb\u0026dpr=2\u0026h=650\u0026w=940",
                "large": "https://images.pexels.com/photos/1170184/pexels-photo-1170184.jpeg?auto=compress\u0026cs=tinysrgb\u0026h=650\u0026w=940",
                "medium": "https://images.pexels.com/photos/1170184/pexels-photo-1170184.jpeg?auto=compress\u0026cs=tinysrgb\u0026h=350",
                "small": "https://images.pexels.com/photos/1170184/pexels-photo-1170184.jpeg?auto=compress\u0026cs=tinysrgb\u0026h=130",
                "portrait": "https://images.pexels.com/photos/1170184/pexels-photo-1170184.jpeg?auto=compress\u0026cs=tinysrgb\u0026fit=crop\u0026h=1200\u0026w=800",
                "landscape": "https://images.pexels.com/photos/1170184/pexels-photo-1170184.jpeg?auto=compress\u0026cs=tinysrgb\u0026fit=crop\u0026h=627\u0026w=1200",
                "tiny": "https://images.pexels.com/photos/1170184/pexels-photo-1170184.jpeg?auto=compress\u0026cs=tinysrgb\u0026dpr=1\u0026fit=crop\u0026h=200\u0026w=280"
            },
            "liked": false,
            "alt": "Woman and Man Waiting on Train Station"
        },
        {
            "id": 934673,
            "width": 5472,
            "height": 3648,
            "url": "https://www.pexels.com/photo/yellow-backpack-with-five-assorted-stickers-on-grey-metal-stairway-rail-934673/",
            "photographer": "Godisable Jacob",
            "photographer_url": "https://www.pexels.com/@godisable-jacob-226636",
            "photographer_id": 226636,
            "avg_color": "#767257",
            "src": {
                "original": "https://images.pexels.com/photos/934673/pexels-photo-934673.jpeg",
                "large2x": "https://images.pexels.com/photos/934673/pexels-photo-934673.jpeg?auto=compress\u0026cs=tinysrgb\u0026dpr=2\u0026h=650\u0026w=940",
                "large": "https://images.pexels.com/photos/934673/pexels-photo-934673.jpeg?auto=compress\u0026cs=tinysrgb\u0026h=650\u0026w=940",
                "medium": "https://images.pexels.com/photos/934673/pexels-photo-934673.jpeg?auto=compress\u0026cs=tinysrgb\u0026h=350",
                "small": "https://images.pexels.com/photos/934673/pexels-photo-934673.jpeg?auto=compress\u0026cs=tinysrgb\u0026h=130",
                "portrait": "https://images.pexels.com/photos/934673/pexels-photo-934673.jpeg?auto=compress\u0026cs=tinysrgb\u0026fit=crop\u0026h=1200\u0026w=800",
                "landscape": "https://images.pexels.com/photos/934673/pexels-photo-934673.jpeg?auto=compress\u0026cs=tinysrgb\u0026fit=crop\u0026h=627\u0026w=1200",
                "tiny": "https://images.pexels.com/photos/934673/pexels-photo-934673.jpeg?auto=compress\u0026cs=tinysrgb\u0026dpr=1\u0026fit=crop\u0026h=200\u0026w=280"
            },
            "liked": false,
            "alt": "Yellow Backpack With Five Assorted Stickers on Grey Metal Stairway Rail"
        },
        {
            "id": 1986996,
            "width": 6000,
            "height": 4000,
            "url": "https://www.pexels.com/photo/two-person-carrying-duffel-and-backpack-1986996/",
            "photographer": "Diana ✨",
            "photographer_url": "https://www.pexels.com/@didsss",
            "photographer_id": 447505,
            "avg_color": "#7C7073",
            "src": {
                "original": "https://images.pexels.com/photos/1986996/pexels-photo-1986996.jpeg",
                "large2x": "https://images.pexels.com/photos/1986996/pexels-photo-1986996.jpeg?auto=compress\u0026cs=tinysrgb\u0026dpr=2\u0026h=650\u0026w=940",
                "large": "https://images.pexels.com/photos/1986996/pexels-photo-1986996.jpeg?auto=compress\u0026cs=tinysrgb\u0026h=650\u0026w=940",
                "medium": "https://images.pexels.com/photos/1986996/pexels-photo-1986996.jpeg?auto=compress\u0026cs=tinysrgb\u0026h=350",
                "small": "https://images.pexels.com/photos/1986996/pexels-photo-1986996.jpeg?auto=compress\u0026cs=tinysrgb\u0026h=130",
                "portrait": "https://images.pexels.com/photos/1986996/pexels-photo-1986996.jpeg?auto=compress\u0026cs=tinysrgb\u0026fit=crop\u0026h=1200\u0026w=800",
                "landscape": "https://images.pexels.com/photos/1986996/pexels-photo-1986996.jpeg?auto=compress\u0026cs=tinysrgb\u0026fit=crop\u0026h=627\u0026w=1200",
                "tiny": "https://images.pexels.com/photos/1986996/pexels-photo-1986996.jpeg?auto=compress\u0026cs=tinysrgb\u0026dpr=1\u0026fit=crop\u0026h=200\u0026w=280"
            },
            "liked": false,
            "alt": "Two Person Carrying Duffel and Backpack"
        },
        {
            "id": 732629,
            "width": 3968,
            "height": 2976,
            "url": "https://www.pexels.com/photo/man-in-blue-dress-shirt-and-blue-jeans-and-orange-backpack-standing-on-mountain-cliff-looking-at-town-under-blue-sky-and-white-clouds-732629/",
            "photographer": "Sassu anas",
            "photographer_url": "https://www.pexels.com/@sassu-anas-216345",
            "photographer_id": 216345,
            "avg_color": "#78858F",
            "src": {
                "original": "https://images.pexels.com/photos/732629/pexels-photo-732629.jpeg",
                "large2x": "https://images.pexels.com/photos/732629/pexels-photo-732629.jpeg?auto=compress\u0026cs=tinysrgb\u0026dpr=2\u0026h=650\u0026w=940",
                "large": "https://images.pexels.com/photos/732629/pexels-photo-732629.jpeg?auto=compress\u0026cs=tinysrgb\u0026h=650\u0026w=940",
                "medium": "https://images.pexels.com/photos/732629/pexels-photo-732629.jpeg?auto=compress\u0026cs=tinysrgb\u0026h=350",
                "small": "https://images.pexels.com/photos/732629/pexels-photo-732629.jpeg?auto=compress\u0026cs=tinysrgb\u0026h=130",
                "portrait": "https://images.pexels.com/photos/732629/pexels-photo-732629.jpeg?auto=compress\u0026cs=tinysrgb\u0026fit=crop\u0026h=1200\u0026w=800",
                "landscape": "https://images.pexels.com/photos/732629/pexels-photo-732629.jpeg?auto=compress\u0026cs=tinysrgb\u0026fit=crop\u0026h=627\u0026w=1200",
                "tiny": "https://images.pexels.com/photos/732629/pexels-photo-732629.jpeg?auto=compress\u0026cs=tinysrgb\u0026dpr=1\u0026fit=crop\u0026h=200\u0026w=280"
            },
            "liked": false,
            "alt": "Man in Blue Dress Shirt and Blue Jeans and Orange Backpack Standing on Mountain Cliff Looking at Town Under Blue Sky and White Clouds"
        },
        {
            "id": 287240,
            "width": 3264,
            "height": 2446,
            "url": "https://www.pexels.com/photo/woman-standing-on-cliff-287240/",
            "photographer": "Nina Uhlikova",
            "photographer_url": "https://www.pexels.com/@ninauhlikova",
            "photographer_id": 87365,
            "avg_color": "#63625A",
            "src": {
                "original": "https://images.pexels.com/photos/287240/pexels-photo-287240.jpeg",
                "large2x": "https://images.pexels.com/photos/287240/pexels-photo-287240.jpeg?auto=compress\u0026cs=tinysrgb\u0026dpr=2\u0026h=650\u0026w=940",
                "large": "https://images.pexels.com/photos/287240/pexels-photo-287240.jpeg?auto=compress\u0026cs=tinysrgb\u0026h=650\u0026w=940",
                "medium": "https://images.pexels.com/photos/287240/pexels-photo-287240.jpeg?auto=compress\u0026cs=tinysrgb\u0026h=350",
                "small": "https://images.pexels.com/photos/287240/pexels-photo-287240.jpeg?auto=compress\u0026cs=tinysrgb\u0026h=130",
                "portrait": "https://images.pexels.com/photos/287240/pexels-photo-287240.jpeg?auto=compress\u0026cs=tinysrgb\u0026fit=crop\u0026h=1200\u0026w=800",
                "landscape": "https://images.pexels.com/photos/287240/pexels-photo-287240.jpeg?auto=compress\u0026cs=tinysrgb\u0026fit=crop\u0026h=627\u0026w=1200",
                "tiny": "https://images.pexels.com/photos/287240/pexels-photo-287240.jpeg?auto=compress\u0026cs=tinysrgb\u0026dpr=1\u0026fit=crop\u0026h=200\u0026w=280"
            },
            "liked": false,
            "alt": "Woman Standing on Cliff"
        }
    ],
    "total_results": 8000,
    "next_page": "https://api.pexels.com/v1/search/?page=2\u0026per_page=15\u0026query=backpack"
}